aleksei@DESKTOP-KHBM66V MINGW64 ~
$ cd C:/users/aleksei/grsu_ais_konopeshko

aleksei@DESKTOP-KHBM66V MINGW64 /c/users/aleksei/grsu_ais_konopeshko (master)
$ git status
On branch master
Your branch is up to date with 'origin/master'.

Changes not staged for commit:
  (use "git add <file>..." to update what will be committed)
  (use "git checkout -- <file>..." to discard changes in working directory)

        modified:   README.md

no changes added to commit (use "git add" and/or "git commit -a")

aleksei@DESKTOP-KHBM66V MINGW64 /c/users/aleksei/grsu_ais_konopeshko (master)
$ git add .

aleksei@DESKTOP-KHBM66V MINGW64 /c/users/aleksei/grsu_ais_konopeshko (master)
$ git status
On branch master
Your branch is up to date with 'origin/master'.

Changes to be committed:
  (use "git reset HEAD <file>..." to unstage)

        modified:   README.md


aleksei@DESKTOP-KHBM66V MINGW64 /c/users/aleksei/grsu_ais_konopeshko (master)
$ git commit -m "first commit"
[master 6763d75] first commit
 1 file changed, 1 insertion(+), 29 deletions(-)
 rewrite README.md (100%)

aleksei@DESKTOP-KHBM66V MINGW64 /c/users/aleksei/grsu_ais_konopeshko (master)
$ git status
On branch master
Your branch is ahead of 'origin/master' by 1 commit.
  (use "git push" to publish your local commits)

nothing to commit, working tree clean

aleksei@DESKTOP-KHBM66V MINGW64 /c/users/aleksei/grsu_ais_konopeshko (master)
$ git push
Enumerating objects: 5, done.
Counting objects: 100% (5/5), done.
Delta compression using up to 8 threads
Compressing objects: 100% (2/2), done.
Writing objects: 100% (3/3), 316 bytes | 105.00 KiB/s, done.
Total 3 (delta 0), reused 0 (delta 0)
To https://bitbucket.org/aleksei_konopeshko/grsu_ais_konopeshko.git
   7f4724b..6763d75  master -> master
